Library/Bee/artifacts/mvdfrm/UnityEditor.UI.ref.dll_452FB8EBD860BCAB.mvfrm
Library/Bee/artifacts/mvdfrm/UnityEngine.UI.ref.dll_01958F46DE82E516.mvfrm
Library/Bee/artifacts/mvdfrm/UnityEditor.Graphs.dll_617B44AD3F63CAE2.mvfrm
Library/Bee/artifacts/mvdfrm/UnityEditor.CoreModule.dll_EFF3B8B73335F0B0.mvfrm
Library/Bee/artifacts/mvdfrm/UnityEditor.DeviceSimulatorModule.dll_7C0687B7E6F90C11.mvfrm
Library/Bee/artifacts/mvdfrm/UnityEditor.DiagnosticsModule.dll_7AC0B91614F2521F.mvfrm
Library/Bee/artifacts/mvdfrm/UnityEditor.GraphViewModule.dll_A8E8F051885FE816.mvfrm
Library/Bee/artifacts/mvdfrm/UnityEditor.PackageManagerUIModule.dll_A37F242A3D78220C.mvfrm
Library/Bee/artifacts/mvdfrm/UnityEditor.QuickSearchModule.dll_05D03A236DC94E78.mvfrm
Library/Bee/artifacts/mvdfrm/UnityEditor.SceneTemplateModule.dll_4AA18E61DC818BF9.mvfrm
Library/Bee/artifacts/mvdfrm/UnityEditor.TextCoreFontEngineModule.dll_C9B7DF7C2F0FBC2E.mvfrm
Library/Bee/artifacts/mvdfrm/UnityEditor.TextCoreTextEngineModule.dll_11A015EDBE93754C.mvfrm
Library/Bee/artifacts/mvdfrm/UnityEditor.UIBuilderModule.dll_FD719D6DFB18614A.mvfrm
Library/Bee/artifacts/mvdfrm/UnityEditor.UIElementsModule.dll_EA11E26FA5A861EC.mvfrm
Library/Bee/artifacts/mvdfrm/UnityEditor.UIElementsSamplesModule.dll_B9FD10B683CFC241.mvfrm
Library/Bee/artifacts/mvdfrm/UnityEditor.UIServiceModule.dll_3663AED0E44FB164.mvfrm
Library/Bee/artifacts/mvdfrm/UnityEditor.UnityConnectModule.dll_8CA5571F6642F766.mvfrm
Library/Bee/artifacts/mvdfrm/UnityEditor.dll_C863718F6AA9D9E5.mvfrm
Library/Bee/artifacts/mvdfrm/UnityEngine.AIModule.dll_BB35E33213088904.mvfrm
Library/Bee/artifacts/mvdfrm/UnityEngine.AccessibilityModule.dll_7D46F9F8DCF7B396.mvfrm
Library/Bee/artifacts/mvdfrm/UnityEngine.AndroidJNIModule.dll_685ACB42EEC7D0C2.mvfrm
Library/Bee/artifacts/mvdfrm/UnityEngine.AnimationModule.dll_776E6C7A62BCBCBC.mvfrm
Library/Bee/artifacts/mvdfrm/UnityEngine.AssetBundleModule.dll_49B96D14D030036A.mvfrm
Library/Bee/artifacts/mvdfrm/UnityEngine.AudioModule.dll_6CFA30192F8E8EAE.mvfrm
Library/Bee/artifacts/mvdfrm/UnityEngine.ClothModule.dll_D3E28D1409AB6D92.mvfrm
Library/Bee/artifacts/mvdfrm/UnityEngine.ClusterInputModule.dll_0C41CC3517CACA2C.mvfrm
Library/Bee/artifacts/mvdfrm/UnityEngine.ClusterRendererModule.dll_81B34A2956B41995.mvfrm
Library/Bee/artifacts/mvdfrm/UnityEngine.CoreModule.dll_13148C09DB3B5BDB.mvfrm
Library/Bee/artifacts/mvdfrm/UnityEngine.CrashReportingModule.dll_47E51550D4826653.mvfrm
Library/Bee/artifacts/mvdfrm/UnityEngine.DSPGraphModule.dll_7B756FE0F18B19D9.mvfrm
Library/Bee/artifacts/mvdfrm/UnityEngine.DirectorModule.dll_76240E777F2A48B8.mvfrm
Library/Bee/artifacts/mvdfrm/UnityEngine.GIModule.dll_53722C3FAEB7711E.mvfrm
Library/Bee/artifacts/mvdfrm/UnityEngine.GameCenterModule.dll_92A8155DB508C1B3.mvfrm
Library/Bee/artifacts/mvdfrm/UnityEngine.GridModule.dll_F085A7F7F38FF1D2.mvfrm
Library/Bee/artifacts/mvdfrm/UnityEngine.HotReloadModule.dll_F8B72A803DEFD83E.mvfrm
Library/Bee/artifacts/mvdfrm/UnityEngine.IMGUIModule.dll_A559CF7FF5C0228F.mvfrm
Library/Bee/artifacts/mvdfrm/UnityEngine.ImageConversionModule.dll_EDA547D9D8D8D189.mvfrm
Library/Bee/artifacts/mvdfrm/UnityEngine.InputLegacyModule.dll_DAFE88336821B95B.mvfrm
Library/Bee/artifacts/mvdfrm/UnityEngine.InputModule.dll_D36FF7C9A5C6B352.mvfrm
Library/Bee/artifacts/mvdfrm/UnityEngine.JSONSerializeModule.dll_DD5E8334DC331420.mvfrm
Library/Bee/artifacts/mvdfrm/UnityEngine.LocalizationModule.dll_4A8E9687AF46BD25.mvfrm
Library/Bee/artifacts/mvdfrm/UnityEngine.ParticleSystemModule.dll_9AF75E9D4293F1E1.mvfrm
Library/Bee/artifacts/mvdfrm/UnityEngine.PerformanceReportingModule.dll_D882EA64919F8B9A.mvfrm
Library/Bee/artifacts/mvdfrm/UnityEngine.Physics2DModule.dll_C4145C6B03B9B451.mvfrm
Library/Bee/artifacts/mvdfrm/UnityEngine.PhysicsModule.dll_AD71D0AB25A4FB3F.mvfrm
Library/Bee/artifacts/mvdfrm/UnityEngine.ProfilerModule.dll_A86A47AE1883CFC5.mvfrm
Library/Bee/artifacts/mvdfrm/UnityEngine.RuntimeInitializeOnLoadManagerInitializerModule.dll_45DA3F2E43CD471A.mvfrm
Library/Bee/artifacts/mvdfrm/UnityEngine.ScreenCaptureModule.dll_F74630B9F09F4082.mvfrm
Library/Bee/artifacts/mvdfrm/UnityEngine.SharedInternalsModule.dll_71B686AF5006CCD9.mvfrm
Library/Bee/artifacts/mvdfrm/UnityEngine.SpriteMaskModule.dll_7BD487EDD678572D.mvfrm
Library/Bee/artifacts/mvdfrm/UnityEngine.SpriteShapeModule.dll_631A9A6F85D23B74.mvfrm
Library/Bee/artifacts/mvdfrm/UnityEngine.StreamingModule.dll_2C0359CAB24473FA.mvfrm
Library/Bee/artifacts/mvdfrm/UnityEngine.SubstanceModule.dll_08AE6E13FD977208.mvfrm
Library/Bee/artifacts/mvdfrm/UnityEngine.SubsystemsModule.dll_E681EE4FA4C03F40.mvfrm
Library/Bee/artifacts/mvdfrm/UnityEngine.TLSModule.dll_A0099C10608BE453.mvfrm
Library/Bee/artifacts/mvdfrm/UnityEngine.TerrainModule.dll_C7B84C19FB63442D.mvfrm
Library/Bee/artifacts/mvdfrm/UnityEngine.TerrainPhysicsModule.dll_9B7207705BD6EC6E.mvfrm
Library/Bee/artifacts/mvdfrm/UnityEngine.TextCoreFontEngineModule.dll_48175ACF420D7AF9.mvfrm
Library/Bee/artifacts/mvdfrm/UnityEngine.TextCoreTextEngineModule.dll_8FFF9140D1913417.mvfrm
Library/Bee/artifacts/mvdfrm/UnityEngine.TextRenderingModule.dll_2085A2C4A7D6C077.mvfrm
Library/Bee/artifacts/mvdfrm/UnityEngine.TilemapModule.dll_66B4B39B13202536.mvfrm
Library/Bee/artifacts/mvdfrm/UnityEngine.UIElementsModule.dll_EAC04FB7A7EC7B37.mvfrm
Library/Bee/artifacts/mvdfrm/UnityEngine.UIElementsNativeModule.dll_EDF8D8BFAEF0922E.mvfrm
Library/Bee/artifacts/mvdfrm/UnityEngine.UIModule.dll_B6A9815F6F4F8EB0.mvfrm
Library/Bee/artifacts/mvdfrm/UnityEngine.UNETModule.dll_A5BAD3F3284A5154.mvfrm
Library/Bee/artifacts/mvdfrm/UnityEngine.UmbraModule.dll_E7CEDC31BCB53A21.mvfrm
Library/Bee/artifacts/mvdfrm/UnityEngine.UnityAnalyticsModule.dll_BA96CF66EEBB43DD.mvfrm
Library/Bee/artifacts/mvdfrm/UnityEngine.UnityConnectModule.dll_7A04DB2E60CAF811.mvfrm
Library/Bee/artifacts/mvdfrm/UnityEngine.UnityCurlModule.dll_AA8B0DABD2D0AEA9.mvfrm
Library/Bee/artifacts/mvdfrm/UnityEngine.UnityTestProtocolModule.dll_75BFC6A8DDCB1797.mvfrm
Library/Bee/artifacts/mvdfrm/UnityEngine.UnityWebRequestAssetBundleModule.dll_3F5402322BDB846E.mvfrm
Library/Bee/artifacts/mvdfrm/UnityEngine.UnityWebRequestAudioModule.dll_507F3E43180A5632.mvfrm
Library/Bee/artifacts/mvdfrm/UnityEngine.UnityWebRequestModule.dll_FF444F83E3CD6C08.mvfrm
Library/Bee/artifacts/mvdfrm/UnityEngine.UnityWebRequestTextureModule.dll_5833D6344D2D8647.mvfrm
Library/Bee/artifacts/mvdfrm/UnityEngine.UnityWebRequestWWWModule.dll_5AC1D69CC150F083.mvfrm
Library/Bee/artifacts/mvdfrm/UnityEngine.VFXModule.dll_20E8347F36F94DC0.mvfrm
Library/Bee/artifacts/mvdfrm/UnityEngine.VRModule.dll_097BA7E5110A1428.mvfrm
Library/Bee/artifacts/mvdfrm/UnityEngine.VehiclesModule.dll_EDE707F6F9541853.mvfrm
Library/Bee/artifacts/mvdfrm/UnityEngine.VideoModule.dll_9203B483F220AA53.mvfrm
Library/Bee/artifacts/mvdfrm/UnityEngine.VirtualTexturingModule.dll_12858D2E879F12B9.mvfrm
Library/Bee/artifacts/mvdfrm/UnityEngine.WindModule.dll_896367326C71DA44.mvfrm
Library/Bee/artifacts/mvdfrm/UnityEngine.XRModule.dll_3C3A6AE99A446186.mvfrm
Library/Bee/artifacts/mvdfrm/UnityEngine.dll_FB07B867C91D66CA.mvfrm
Library/Bee/artifacts/mvdfrm/UnityEditor.LinuxStandalone.Extensions.dll_5D58F067E7668920.mvfrm
Library/Bee/artifacts/mvdfrm/UnityEditor.WebGL.Extensions.dll_C0B17F429D761100.mvfrm
Library/Bee/artifacts/mvdfrm/Unity.Burst.Cecil.Mdb.dll_B65577397E7323F7.mvfrm
Library/Bee/artifacts/mvdfrm/Unity.Burst.Cecil.Pdb.dll_CDA7EFA8FD28257A.mvfrm
Library/Bee/artifacts/mvdfrm/Unity.Burst.Cecil.Rocks.dll_0270E7BA769978DA.mvfrm
Library/Bee/artifacts/mvdfrm/Unity.Burst.Cecil.dll_06AB9A7F768E223A.mvfrm
Library/Bee/artifacts/mvdfrm/Unity.Burst.Unsafe.dll_10EB07B74B5D3839.mvfrm
Library/Bee/artifacts/mvdfrm/Unity.Plastic.Antlr3.Runtime.dll_B33DA7D6E57BA7D0.mvfrm
Library/Bee/artifacts/mvdfrm/Unity.Plastic.Newtonsoft.Json.dll_EFFEF18B9B067065.mvfrm
Library/Bee/artifacts/mvdfrm/Unity.VisualScripting.IonicZip.dll_757FB59D07CF1F7A.mvfrm
Library/Bee/artifacts/mvdfrm/Unity.VisualScripting.YamlDotNet.dll_0E63D6077D732D22.mvfrm
Library/Bee/artifacts/mvdfrm/Unity.VisualScripting.Antlr3.Runtime.dll_BFD0FCE8AE3C3D41.mvfrm